Assign_4
…
##  Conflicts  tidyverse_conflicts() 
## x dplyr::filter() masks stats::filter()
## x dplyr::lag()    masks stats::lag()

iris %>% 
  group_by(iris = "Virginica", Sepal.Width) %>%
  summarise(n = n())

## `summarise()` regrouping output by 'iris' (override with `.groups` argument)

## # A tibble: 23 x 3
## # Groups:   iris [1]
##    iris      Sepal.Width     n
##    <chr>           <dbl> <int>
##  1 Virginica         2       1
##  2 Virginica         2.2     3
##  3 Virginica         2.3     4
##  4 Virginica         2.4     3
##  5 Virginica         2.5     8
##  6 Virginica         2.6     5
##  7 Virginica         2.7     9
##  8 Virginica         2.8    14
##  9 Virginica         2.9    10
## 10 Virginica         3      26
## #  with 13 more rows
…
